{
  "required": true,
  "minVersion": "0.8",
  "package": "com.davidjmacdonald.improved_anvils.mixin",
  "compatibilityLevel": "JAVA_17",
  "mixins": [
    "AnvilScreenHandlerMixin"
  ],
  "client": [
    "AnvilScreenMixin"
  ],
  "injectors": {
    "defaultRequire": 1
  }
}
